…
Missing users are from different project. The timestamps are identical.

### Check timestamp column

Columns without UTC

``` r
checkin %>%
        filter(str_detect(timestamp,'UTC', negate = TRUE))
```

    ## # A tibble: 2,047 x 4
    ##    user    timestamp              hours project    
    ##    <chr>   <chr>                  <dbl> <chr>      
    ##  1 robert  09/27/2019 12:00 AM     8    bizdev     
    ##  2 ned     26 <U+0441><U+0435><U+043D><U+0442><U+044F><U+0431><U+0440><U+044F> 2019 00:00  4    bizdev     
    ##  3 jaime   12/21/2018 12:00 AM     2    project-00 
    ##  4 catelyn 26 <U+043D><U+043E><U+044F><U+0431><U+0440><U+044F> 2018 14:47    0.72 opsandadmin
    ##  5 jorah   11/26/2018 12:49 PM     2    project-51 
    ##  6 viserys 26 <U+043D><U+043E><U+044F><U+0431><U+0440><U+044F> 2018 12:30    0.5  opsandadmin
    ##  7 viserys 11/26/2018 12:30 PM     1    project-51 
    ##  8 jaime   26 <U+043D><U+043E><U+044F><U+0431><U+0440><U+044F> 2018 12:11    1.8  learning   
    ##  9 sansa   11/26/2018 11:48 AM     2    transit    
    ## 10 catelyn 23 <U+043D><U+043E><U+044F><U+0431><U+0440><U+044F> 2018 13:12    2.37 project-40 
    ## # ... with 2,037 more rows
…
Can just assume all are UTC

### Count entries with different encoding

``` r
checkin %>%
        mutate(timestamp = str_remove(timestamp,'UTC')) %>%
        filter(str_detect(timestamp, '[:alpha:]')) %>%
        filter(str_detect(timestamp, 'AM|PM', negate =  TRUE))
```

    ## # A tibble: 1,022 x 4
    ##    user    timestamp              hours project    
    ##    <chr>   <chr>                  <dbl> <chr>      
    ##  1 ned     26 <U+0441><U+0435><U+043D><U+0442><U+044F><U+0431><U+0440><U+044F> 2019 00:00  4    bizdev     
    ##  2 catelyn 26 <U+043D><U+043E><U+044F><U+0431><U+0440><U+044F> 2018 14:47    0.72 opsandadmin
    ##  3 viserys 26 <U+043D><U+043E><U+044F><U+0431><U+0440><U+044F> 2018 12:30    0.5  opsandadmin
    ##  4 jaime   26 <U+043D><U+043E><U+044F><U+0431><U+0440><U+044F> 2018 12:11    1.8  learning   
    ##  5 catelyn 23 <U+043D><U+043E><U+044F><U+0431><U+0440><U+044F> 2018 13:12    2.37 project-40 
    ##  6 cersei  23 <U+043D><U+043E><U+044F><U+0431><U+0440><U+044F> 2018 00:00    5.5  blogideas  
    ##  7 joffrey 23 <U+043D><U+043E><U+044F><U+0431><U+0440><U+044F> 2018 00:00    1    project-32 
    ##  8 bran    23 <U+043D><U+043E><U+044F><U+0431><U+0440><U+044F> 2018 00:00    1.78 project-31 
    ##  9 sansa   23 <U+043D><U+043E><U+044F><U+0431><U+0440><U+044F> 2018 00:00    2    project-31 
    ## 10 sansa   23 <U+043D><U+043E><U+044F><U+0431><U+0440><U+044F> 2018 00:00    1    project-51 
    ## # ... with 1,012 more rows
…
