…
        data
}

checkin = clean_data(checkin)
```

``` r
checkin %>%
        filter(duplicated(.))
```

    ## # A tibble: 804 x 4
    ##    timestamp           user    hours project             
    ##    <dttm>              <chr>   <dbl> <chr>               
    ##  1 2018-11-26 20:49:17 jorah    0.5  opsandadmin         
    ##  2 2018-11-22 22:12:32 joffrey  2    project-25          
    ##  3 2018-11-22 19:36:11 jon      1    project-25          
    ##  4 2018-11-22 19:36:11 jon      1    project-25          
    ##  5 2018-11-22 19:36:11 jon      1.75 project-25          
    ##  6 2018-11-22 18:58:01 davos    1    cultureandmanagement
    ##  7 2018-11-22 08:00:00 jorah    1    cultureandmanagement
    ##  8 2018-11-21 08:00:00 hound    1    opsandadmin         
    ##  9 2018-11-20 08:00:00 davos    0.5  project-65          
    ## 10 2018-11-20 08:00:00 jon      0.5  project-25          
    ## # ... with 794 more rows
…
